{
  "current_page": 1,
  "total_pages": 224,
  "total_items": 224,
  "photos": [
    {
      "id": 279928085,
      "created_at": "2018-10-27T00:30:44+00:00",
      "privacy": false,
      "profile": true,
      "url": "/photo/279928085/Touchdown-Essaouira--by-Till-Kuhn",
      "user_id": 10108291,
      "status": 1,
      "width": 3300,
      "height": 2200,
      "rating": 46.3,
      "highest_rating": 89.5,
      "highest_rating_date": "2018-10-27T22:41:26+00:00",
      "image_format": "jpg",
      "images": [
        {
          "format": "jpeg",
          "size": 1,
          "url": "https://drscdn.500px.org/photo/279928085/w%3D70_h%3D70/v2?sig=12a9a32c40f323ec058272fbdd98138a0485f02542577a6bed7a30b8adc6dda6",
          "https_url": "https://drscdn.500px.org/photo/279928085/w%3D70_h%3D70/v2?sig=12a9a32c40f323ec058272fbdd98138a0485f02542577a6bed7a30b8adc6dda6"
        },
        {
          "format": "jpeg",
          "size": 2,
          "url": "https://drscdn.500px.org/photo/279928085/q%3D50_w%3D140_h%3D140/v2?sig=40e94f8feec4a0b4b0d2b32fde916c3a80b801582e6d40d0a8cb21e0f50d8cc5",
          "https_url": "https://drscdn.500px.org/photo/279928085/q%3D50_w%3D140_h%3D140/v2?sig=40e94f8feec4a0b4b0d2b32fde916c3a80b801582e6d40d0a8cb21e0f50d8cc5"
        },
        {
          "format": "jpeg",
          "size": 32,
          "url": "https://drscdn.500px.org/photo/279928085/q%3D80_h%3D300/v2?sig=c530ad13c0b58ffba5aeedef0836e8c1a96d90db8c7431a5f1fa1a14c79843bb",
          "https_url": "https://drscdn.500px.org/photo/279928085/q%3D80_h%3D300/v2?sig=c530ad13c0b58ffba5aeedef0836e8c1a96d90db8c7431a5f1fa1a14c79843bb"
        },
        {
          "format": "jpeg",
          "size": 21,
          "url": "https://drscdn.500px.org/photo/279928085/h%3D600_k%3D1/v2?sig=2fe033b01c174707c557996d147fb648bf63743d74a8927bcb259cd95f7aba3c",
          "https_url": "https://drscdn.500px.org/photo/279928085/h%3D600_k%3D1/v2?sig=2fe033b01c174707c557996d147fb648bf63743d74a8927bcb259cd95f7aba3c"
        },
        {
          "format": "jpeg",
          "size": 33,
          "url": "https://drscdn.500px.org/photo/279928085/q%3D80_h%3D600_k%3D1/v2?sig=8dde637c1d92be911b115f1f9c88ab4bd9c38a727c7cedb0612d85b519713525",
          "https_url": "https://drscdn.500px.org/photo/279928085/q%3D80_h%3D600_k%3D1/v2?sig=8dde637c1d92be911b115f1f9c88ab4bd9c38a727c7cedb0612d85b519713525"
        },
        {
          "format": "jpeg",
          "size": 34,
          "url": "https://drscdn.500px.org/photo/279928085/q%3D80_m%3D1000_k%3D1/v2?sig=98c10dee8356cf47af03fb7c1a2528b6eb9fbbcd3a0c929b1905650294e69401",
          "https_url": "https://drscdn.500px.org/photo/279928085/q%3D80_m%3D1000_k%3D1/v2?sig=98c10dee8356cf47af03fb7c1a2528b6eb9fbbcd3a0c929b1905650294e69401"
        },
        {
          "format": "jpeg",
          "size": 35,
          "url": "https://drscdn.500px.org/photo/279928085/q%3D80_m%3D1500_k%3D1/v2?sig=31867d2f8acde399e71252751913aa44300fc5fb77caa044a482601d747ca2ab",
          "https_url": "https://drscdn.500px.org/photo/279928085/q%3D80_m%3D1500_k%3D1/v2?sig=31867d2f8acde399e71252751913aa44300fc5fb77caa044a482601d747ca2ab"
        },
        {
          "format": "jpeg",
          "size": 36,
          "url": "https://drscdn.500px.org/photo/279928085/q%3D80_m%3D2000_k%3D1/v2?sig=682facb46f32764490929b9eb25d7c9126bf23a62aa43fed0cec717438a94b1f",
          "https_url": "https://drscdn.500px.org/photo/279928085/q%3D80_m%3D2000_k%3D1/v2?sig=682facb46f32764490929b9eb25d7c9126bf23a62aa43fed0cec717438a94b1f"
        },
        {
          "format": "jpeg",
          "size": 2048,
          "url": "https://drscdn.500px.org/photo/279928085/m%3D2048_k%3D1/v2?sig=b3e5d2b186691ddd9f1a76a6c802ba01b99648e09a8c5e841d2d49d40dbf6a68",
          "https_url": "https://drscdn.500px.org/photo/279928085/m%3D2048_k%3D1/v2?sig=b3e5d2b186691ddd9f1a76a6c802ba01b99648e09a8c5e841d2d49d40dbf6a68"
        },
        {
          "format": "jpeg",
          "size": 4,
          "url": "https://drscdn.500px.org/photo/279928085/m%3D900/v2?sig=5ea6212c6deed56bece52afb892ba16cf09c30de38d8086dc060a8eaa5d61f5d",
          "https_url": "https://drscdn.500px.org/photo/279928085/m%3D900/v2?sig=5ea6212c6deed56bece52afb892ba16cf09c30de38d8086dc060a8eaa5d61f5d"
        },
        {
          "format": "jpeg",
          "size": 14,
          "url": "https://drscdn.500px.org/photo/279928085/m%3D900_s%3D1_k%3D1/v2?sig=af18f185a26b74fce3a4bce8defb9f4f8997c16412fb229c5aa23ba271ce4d7b",
          "https_url": "https://drscdn.500px.org/photo/279928085/m%3D900_s%3D1_k%3D1/v2?sig=af18f185a26b74fce3a4bce8defb9f4f8997c16412fb229c5aa23ba271ce4d7b"
        }
      ],
      "image_url": [
        "https://drscdn.500px.org/photo/279928085/w%3D70_h%3D70/v2?sig=12a9a32c40f323ec058272fbdd98138a0485f02542577a6bed7a30b8adc6dda6",
        "https://drscdn.500px.org/photo/279928085/q%3D50_w%3D140_h%3D140/v2?sig=40e94f8feec4a0b4b0d2b32fde916c3a80b801582e6d40d0a8cb21e0f50d8cc5",
        "https://drscdn.500px.org/photo/279928085/q%3D80_h%3D300/v2?sig=c530ad13c0b58ffba5aeedef0836e8c1a96d90db8c7431a5f1fa1a14c79843bb",
        "https://drscdn.500px.org/photo/279928085/h%3D600_k%3D1/v2?sig=2fe033b01c174707c557996d147fb648bf63743d74a8927bcb259cd95f7aba3c",
        "https://drscdn.500px.org/photo/279928085/q%3D80_h%3D600_k%3D1/v2?sig=8dde637c1d92be911b115f1f9c88ab4bd9c38a727c7cedb0612d85b519713525",
        "https://drscdn.500px.org/photo/279928085/q%3D80_m%3D1000_k%3D1/v2?sig=98c10dee8356cf47af03fb7c1a2528b6eb9fbbcd3a0c929b1905650294e69401",
        "https://drscdn.500px.org/photo/279928085/q%3D80_m%3D1500_k%3D1/v2?sig=31867d2f8acde399e71252751913aa44300fc5fb77caa044a482601d747ca2ab",
        "https://drscdn.500px.org/photo/279928085/q%3D80_m%3D2000_k%3D1/v2?sig=682facb46f32764490929b9eb25d7c9126bf23a62aa43fed0cec717438a94b1f",
        "https://drscdn.500px.org/photo/279928085/m%3D2048_k%3D1/v2?sig=b3e5d2b186691ddd9f1a76a6c802ba01b99648e09a8c5e841d2d49d40dbf6a68",
        "https://drscdn.500px.org/photo/279928085/m%3D900/v2?sig=5ea6212c6deed56bece52afb892ba16cf09c30de38d8086dc060a8eaa5d61f5d",
        "https://drscdn.500px.org/photo/279928085/m%3D900_s%3D1_k%3D1/v2?sig=af18f185a26b74fce3a4bce8defb9f4f8997c16412fb229c5aa23ba271ce4d7b"
      ],
      "name": "Touchdown Essaouira 🇲🇦",
      "description": "A seagull lands in front of the fortress walls that enclose the fascinating moroccan city Essaouira on the atlantic coast.",
      "category": 13,
      "taken_at": "2018-10-25T00:00:00+00:00",
      "shutter_speed": "1/400",
      "focal_length": "77",
      "aperture": "5.6",
      "camera": "Canon EOS 600D",
      "lens": null,
      "iso": "100",
      "location": "Essaouira,Morocco",
      "latitude": 31.51357579999999,
      "longitude": -9.773845299999948,
      "nsfw": false,
      "privacy_level": 2,
      "watermark": true,
      "show_exif_data": true,
      "tags": [
        "Essaouira",
        "Morocco",
        "Marokko",
        "Seagull",
        "Old Town",
        "Medina",
        "الصويرة",
        "Fortress"
      ],
      "has_nsfw_tags": false,
      "liked": null,
      "voted": null,
      "comments_count": 0,
      "votes_count": 39,
      "positive_votes_count": 39,
      "times_viewed": 1555,
      "user": {
        "id": 10108291,
        "username": "tillkuhn",
        "fullname": "Till Kuhn",
        "avatar_version": 1,
        "registration_date": "2014-10-25T09:16:31+00:00",
        "avatars": {
          "tiny": {
            "https": "https://drscdn.500px.org/user_avatar/10108291/q%3D85_w%3D30_h%3D30/v2?webp=true&v=1&sig=7d16a8205638b9e342a2f33a6e517303f789d4db3ca91f4c1207b4013f572058"
          },
          "small": {
            "https": "https://drscdn.500px.org/user_avatar/10108291/q%3D85_w%3D50_h%3D50/v2?webp=true&v=1&sig=5cac12fb56da5ca1907b42cbdaf12c22c803737a4f7bce7e2fa55131edad9776"
          },
          "large": {
            "https": "https://drscdn.500px.org/user_avatar/10108291/q%3D85_w%3D100_h%3D100/v2?webp=true&v=1&sig=6b0012a8cb3b7a8ae2f9a4de33fedaa51198f5d5a7a349ef925e322e4dfb969f"
          },
          "cover": {
            "https": "https://drscdn.500px.org/user_avatar/10108291/q%3D65_m%3D2048/v2?webp=true&v=1&sig=b36478407ac3a0caee251f5a84ce2ab761f91865299845aae12d9bd778dd64f6"
          },
          "default": {
            "https": "https://drscdn.500px.org/user_avatar/10108291/q%3D85_w%3D300_h%3D300/v2?webp=true&v=1&sig=603ec81acf1628b211d193aeb44a6ea0ee1a109cf78becd79c2c78fa609c8eee"
          }
        },
        "userpic_url": "https://drscdn.500px.org/user_avatar/10108291/q%3D85_w%3D300_h%3D300/v2?webp=true&v=1&sig=603ec81acf1628b211d193aeb44a6ea0ee1a109cf78becd79c2c78fa609c8eee",
        "userpic_https_url": "https://drscdn.500px.org/user_avatar/10108291/q%3D85_w%3D300_h%3D300/v2?webp=true&v=1&sig=603ec81acf1628b211d193aeb44a6ea0ee1a109cf78becd79c2c78fa609c8eee",
        "usertype": 0,
        "active": 1,
        "firstname": "Till",
        "lastname": "Kuhn",
        "about": "While not at work or home I enjoy travelling and have a significant addiction for Southeast Asia which also happens to be the origin of most of the photos presented here. I'm using a Canon 600D with a couple of lenses, but wouldn't consider myself a tech nerd, and also try to avoid to spend too much time with post processing. After finding some fascinating photos here I hope to also meet some interesting people. Note that I also appreciate criticism, so feel free to comment whenever you see room for improvement. Of couse you may also choose to say something positive :-)",
        "city": "Essen",
        "state": "",
        "country": "Germany",
        "cover_url": "https://drscdn.500px.org/user_cover/10108291/q%3D65_m%3D2048/v2?webp=true&v=12&sig=156c4128cbda282e3a5bf5f082e18777f48e865d3eb3dd2dbd9a20604543f4c0",
        "upgrade_status": 0,
        "affection": 4496,
        "followers_count": 0,
        "following": false
      },
      "editors_choice": false,
      "editors_choice_date": null,
      "editored_by": null,
      "feature": "popular",
      "feature_date": "2018-10-27T00:49:16+00:00",
      "fill_switch": {
        "access_deleted": false,
        "access_private": false,
        "include_deleted": false,
        "exclude_private": false,
        "exclude_nude": false,
        "always_exclude_nude": false,
        "exclude_block": true,
        "current_user_id": null,
        "only_user_active": true,
        "include_tags": true,
        "include_geo": false,
        "include_licensing": false,
        "include_admin_locks": false,
        "include_like_by": false,
        "include_comments": false,
        "include_user_info": false,
        "include_follow_info": false,
        "include_equipment_info": false
      }
    }
  ]
}
